module goproj

go 1.18

require github.com/h2non/bimg v1.1.9

require (
	cloud.google.com/go v0.100.2 // indirect
	cloud.google.com/go/compute v1.6.0 // indirect
	cloud.google.com/go/iam v0.3.0 // indirect
	cloud.google.com/go/storage v1.22.1 // indirect
	github.com/golang/groupcache v0.0.0-20200121045136-8c9f03a8e57e // indirect
	github.com/golang/protobuf v1.5.2 // indirect
	github.com/google/go-cmp v0.5.7 // indirect
	github.com/google/uuid v1.1.2 // indirect
	github.com/googleapis/gax-go/v2 v2.3.0 // indirect
	github.com/googleapis/go-type-adapters v1.0.0 // indirect
	go.opencensus.io v0.23.0 // indirect
	golang.org/x/net v0.0.0-20220325170049-de3da57026de // indirect
	golang.org/x/oauth2 v0.0.0-20220411215720-9780585627b5 // indirect
	golang.org/x/sys v0.0.0-20220328115105-d36c6a25d886 // indirect
	golang.org/x/text v0.3.7 // indirect
	golang.org/x/xerrors v0.0.0-20220411194840-2f41105eb62f // indirect
	google.golang.org/api v0.74.0 // indirect
	google.golang.org/appengine v1.6.7 // indirect
	google.golang.org/genproto v0.0.0-20220518221133-4f43b3371335 // indirect
	google.golang.org/grpc v1.46.0 // indirect
	google.golang.org/protobuf v1.28.0 // indirect
)
